<?xml version="1.0" encoding="UTF-8" standalone="no"?>
<svg
   xmlns:dc="http://purl.org/dc/elements/1.1/"
   xmlns:cc="http://creativecommons.org/ns#"
   xmlns:rdf="http://www.w3.org/1999/02/22-rdf-syntax-ns#"
   xmlns:svg="http://www.w3.org/2000/svg"
   xmlns="http://www.w3.org/2000/svg"
   xmlns:sodipodi="http://sodipodi.sourceforge.net/DTD/sodipodi-0.dtd"
   xmlns:inkscape="http://www.inkscape.org/namespaces/inkscape"
   id="svg2"
   height="115.3004"
   width="115"
   version="1.1"
   sodipodi:docname="windows.svg"
   style="fill:#0078d6"
   inkscape:version="0.92.4 (5da689c313, 2019-01-14)">
  <defs
     id="defs18" />
  <sodipodi:namedview
     pagecolor="#ffffff"
     bordercolor="#666666"
     borderopacity="1"
     objecttolerance="10"
     gridtolerance="10"
     guidetolerance="10"
     inkscape:pageopacity="0"
     inkscape:pageshadow="2"
     inkscape:window-width="768"
     inkscape:window-height="480"
     id="namedview16"
     showgrid="false"
     inkscape:zoom="0.57081259"
     inkscape:cx="131.02136"
     inkscape:cy="57.6502"
     inkscape:window-x="58"
     inkscape:window-y="0"
     inkscape:window-maximized="0"
     inkscape:current-layer="g4186" />
  <metadata
     id="metadata28">
    <rdf:RDF>
      <cc:Work
         rdf:about="">
        <dc:format>image/svg+xml</dc:format>
        <dc:type
           rdf:resource="http://purl.org/dc/dcmitype/StillImage" />
        <dc:title></dc:title>
      </cc:Work>
    </rdf:RDF>
  </metadata>
  <g
     id="g4186"
     transform="translate(113.6877,-58.238058)"
     style="fill:#0078d6">
    <polygon
       id="svg_23"
       transform="matrix(2.535275,0,0,2.535275,-109.6877,62.23806)"
       points="41.727,0 18.502,3.389 18.502,20.219 41.727,20.219 " />
    <polygon
       id="svg_24"
       transform="matrix(2.535275,0,0,2.535275,-109.6877,62.23806)"
       points="0,6.087 0,20.219 16.865,20.219 16.865,3.627 " />
    <polygon
       id="svg_25"
       transform="matrix(2.535275,0,0,2.535275,-109.6877,62.23806)"
       points="0,36.167 16.865,38.655 16.865,21.855 0,21.855 " />
    <polygon
       id="svg_26"
       transform="matrix(2.535275,0,0,2.535275,-109.6877,62.23806)"
       points="41.727,42.323 41.727,21.855 18.502,21.855 18.502,38.897 " />
  </g>
</svg>
